###############
# Settings for linked object number 0
targetObject=0
# Settings for linked object number 1
targetObject=1
targetFace=0
color=<1.000000, 1.000000, 1.000000>;0.000000
texture=5748decc-f629-461c-9a36-a35a221fe21f;<1.000000, 1.000000, 0.000000>;<0.000000, 0.000000, 0.000000>;0.000000
normal=5b53359e-59dd-d8a2-04c3-9e65134da47a;<1.000000, 1.000000, 0.000000>;<0.000000, 0.000000, 0.000000>;0.000000
specular=5748decc-f629-461c-9a36-a35a221fe21f;<1.000000, 1.000000, 0.000000>;<0.000000, 0.000000, 0.000000>;0.000000;<1.000000, 1.000000, 1.000000>;51;0
targetFace=1
color=<1.000000, 1.000000, 1.000000>;0.000000
texture=5748decc-f629-461c-9a36-a35a221fe21f;<1.000000, 1.000000, 0.000000>;<0.000000, 0.000000, 0.000000>;0.000000
normal=5b53359e-59dd-d8a2-04c3-9e65134da47a;<1.000000, 1.000000, 0.000000>;<0.000000, 0.000000, 0.000000>;0.000000
specular=5748decc-f629-461c-9a36-a35a221fe21f;<1.000000, 1.000000, 0.000000>;<0.000000, 0.000000, 0.000000>;0.000000;<1.000000, 1.000000, 1.000000>;51;0
targetFace=2
color=<1.000000, 1.000000, 1.000000>;0.000000
texture=5748decc-f629-461c-9a36-a35a221fe21f;<1.000000, 1.000000, 0.000000>;<0.000000, 0.000000, 0.000000>;0.000000
normal=5b53359e-59dd-d8a2-04c3-9e65134da47a;<1.000000, 1.000000, 0.000000>;<0.000000, 0.000000, 0.000000>;0.000000
specular=5748decc-f629-461c-9a36-a35a221fe21f;<1.000000, 1.000000, 0.000000>;<0.000000, 0.000000, 0.000000>;0.000000;<1.000000, 1.000000, 1.000000>;51;0
targetFace=3
color=<1.000000, 1.000000, 1.000000>;0.000000
texture=5748decc-f629-461c-9a36-a35a221fe21f;<1.000000, 1.000000, 0.000000>;<0.000000, 0.000000, 0.000000>;0.000000
normal=5b53359e-59dd-d8a2-04c3-9e65134da47a;<1.000000, 1.000000, 0.000000>;<0.000000, 0.000000, 0.000000>;0.000000
specular=5748decc-f629-461c-9a36-a35a221fe21f;<1.000000, 1.000000, 0.000000>;<0.000000, 0.000000, 0.000000>;0.000000;<1.000000, 1.000000, 1.000000>;51;0
targetFace=4
color=<1.000000, 1.000000, 1.000000>;0.000000
texture=5748decc-f629-461c-9a36-a35a221fe21f;<1.000000, 1.000000, 0.000000>;<0.000000, 0.000000, 0.000000>;0.000000
normal=5b53359e-59dd-d8a2-04c3-9e65134da47a;<1.000000, 1.000000, 0.000000>;<0.000000, 0.000000, 0.000000>;0.000000
specular=5748decc-f629-461c-9a36-a35a221fe21f;<1.000000, 1.000000, 0.000000>;<0.000000, 0.000000, 0.000000>;0.000000;<1.000000, 1.000000, 1.000000>;51;0
targetFace=5
color=<1.000000, 1.000000, 1.000000>;0.000000
texture=5748decc-f629-461c-9a36-a35a221fe21f;<1.000000, 1.000000, 0.000000>;<0.000000, 0.000000, 0.000000>;0.000000
normal=5b53359e-59dd-d8a2-04c3-9e65134da47a;<1.000000, 1.000000, 0.000000>;<0.000000, 0.000000, 0.000000>;0.000000
specular=5748decc-f629-461c-9a36-a35a221fe21f;<1.000000, 1.000000, 0.000000>;<0.000000, 0.000000, 0.000000>;0.000000;<1.000000, 1.000000, 1.000000>;51;0
# Settings for linked object number 3
targetObject=3
targetFace=0
color=<1.000000, 1.000000, 1.000000>;0.000000
texture=5748decc-f629-461c-9a36-a35a221fe21f;<1.000000, 1.000000, 0.000000>;<0.000000, 0.000000, 0.000000>;0.000000
normal=5b53359e-59dd-d8a2-04c3-9e65134da47a;<1.000000, 1.000000, 0.000000>;<0.000000, 0.000000, 0.000000>;0.000000
specular=5748decc-f629-461c-9a36-a35a221fe21f;<1.000000, 1.000000, 0.000000>;<0.000000, 0.000000, 0.000000>;0.000000;<1.000000, 1.000000, 1.000000>;51;0
# Settings for linked object number 10
targetObject=10
targetFace=0
color=<1.000000, 1.000000, 1.000000>;0.000000
texture=5748decc-f629-461c-9a36-a35a221fe21f;<1.000000, 1.000000, 0.000000>;<0.000000, 0.000000, 0.000000>;0.000000
normal=5b53359e-59dd-d8a2-04c3-9e65134da47a;<1.000000, 1.000000, 0.000000>;<0.000000, 0.000000, 0.000000>;0.000000
specular=5748decc-f629-461c-9a36-a35a221fe21f;<1.000000, 1.000000, 0.000000>;<0.000000, 0.000000, 0.000000>;0.000000;<1.000000, 1.000000, 1.000000>;160;0
# Settings for linked object number 11
targetObject=11
targetFace=0
color=<1.000000, 0.780392, 0.882353>;0.000000
texture=5748decc-f629-461c-9a36-a35a221fe21f;<1.000000, 1.000000, 0.000000>;<0.000000, 0.000000, 0.000000>;0.000000
normal=5b53359e-59dd-d8a2-04c3-9e65134da47a;<1.000000, 1.000000, 0.000000>;<0.000000, 0.000000, 0.000000>;0.000000
specular=5748decc-f629-461c-9a36-a35a221fe21f;<1.000000, 1.000000, 0.000000>;<0.000000, 0.000000, 0.000000>;0.000000;<1.000000, 1.000000, 1.000000>;161;0
targetFace=1
color=<1.000000, 0.780392, 0.882353>;0.000000
texture=5748decc-f629-461c-9a36-a35a221fe21f;<1.000000, 1.000000, 0.000000>;<0.000000, 0.000000, 0.000000>;0.000000
normal=5b53359e-59dd-d8a2-04c3-9e65134da47a;<1.000000, 1.000000, 0.000000>;<0.000000, 0.000000, 0.000000>;0.000000
specular=5748decc-f629-461c-9a36-a35a221fe21f;<1.000000, 1.000000, 0.000000>;<0.000000, 0.000000, 0.000000>;0.000000;<0.749020, 0.749020, 0.749020>;150;15
targetFace=2
color=<1.000000, 1.000000, 1.000000>;0.000000
texture=5748decc-f629-461c-9a36-a35a221fe21f;<1.000000, 1.000000, 0.000000>;<0.000000, 0.000000, 0.000000>;0.000000
normal=5b53359e-59dd-d8a2-04c3-9e65134da47a;<16.000000, 16.000000, 0.000000>;<0.000000, 0.000000, 0.000000>;0.000000
specular=5748decc-f629-461c-9a36-a35a221fe21f;<1.000000, 1.000000, 0.000000>;<0.000000, 0.000000, 0.000000>;0.000000;<0.749020, 0.749020, 0.749020>;150;15
targetFace=3
color=<1.000000, 1.000000, 1.000000>;0.000000
texture=5748decc-f629-461c-9a36-a35a221fe21f;<1.000000, 1.000000, 0.000000>;<0.000000, 0.000000, 0.000000>;0.000000
normal=5b53359e-59dd-d8a2-04c3-9e65134da47a;<1.000000, 1.000000, 0.000000>;<0.000000, 0.000000, 0.000000>;0.000000
specular=5748decc-f629-461c-9a36-a35a221fe21f;<1.000000, 1.000000, 0.000000>;<0.000000, 0.000000, 0.000000>;0.000000;<0.749020, 0.749020, 0.749020>;150;15
targetFace=4
color=<1.000000, 1.000000, 1.000000>;0.000000
texture=5748decc-f629-461c-9a36-a35a221fe21f;<1.000000, 1.000000, 0.000000>;<0.000000, 0.000000, 0.000000>;0.000000
normal=5b53359e-59dd-d8a2-04c3-9e65134da47a;<1.000000, 1.000000, 0.000000>;<0.000000, 0.000000, 0.000000>;0.000000
specular=5748decc-f629-461c-9a36-a35a221fe21f;<1.000000, 1.000000, 0.000000>;<0.000000, 0.000000, 0.000000>;0.000000;<0.749020, 0.749020, 0.749020>;150;15
targetFace=5
color=<1.000000, 1.000000, 1.000000>;0.000000
texture=5748decc-f629-461c-9a36-a35a221fe21f;<1.000000, 1.000000, 0.000000>;<0.000000, 0.000000, 0.000000>;0.000000
normal=5b53359e-59dd-d8a2-04c3-9e65134da47a;<1.000000, 1.000000, 0.000000>;<0.000000, 0.000000, 0.000000>;0.000000
specular=5748decc-f629-461c-9a36-a35a221fe21f;<1.000000, 1.000000, 0.000000>;<0.000000, 0.000000, 0.000000>;0.000000;<0.749020, 0.749020, 0.749020>;150;15
# Settings for linked object number 12
targetObject=12
targetFace=0
color=<1.000000, 0.462745, 0.713726>;0.000000
texture=5748decc-f629-461c-9a36-a35a221fe21f;<1.000000, 1.000000, 0.000000>;<0.000000, 0.000000, 0.000000>;0.000000
normal=5b53359e-59dd-d8a2-04c3-9e65134da47a;<1.000000, 1.000000, 0.000000>;<0.000000, 0.000000, 0.000000>;0.000000
specular=5748decc-f629-461c-9a36-a35a221fe21f;<1.000000, 1.000000, 0.000000>;<0.000000, 0.000000, 0.000000>;0.000000;<0.749020, 0.749020, 0.749020>;150;15
# Settings for linked object number 13
targetObject=13
targetFace=0
color=<0.000000, 0.000000, 0.000000>;1.000000
texture=8717fdb4-62a9-8b70-8720-f6edb077d921;<1.000000, 1.000000, 0.000000>;<0.000000, 0.000000, 0.000000>;0.000000
normal=312034cb-7923-d68e-45c8-039ff3015c4c;<1.000000, 1.000000, 0.000000>;<0.000000, 0.000000, 0.000000>;0.000000
specular=a2011657-ef1b-31bb-635f-1573117225f0;<1.000000, 1.000000, 0.000000>;<0.000000, 0.000000, 0.000000>;0.000000;<0.501961, 0.501961, 0.501961>;150;50
targetFace=1
color=<0.000000, 0.000000, 0.000000>;1.000000
texture=8717fdb4-62a9-8b70-8720-f6edb077d921;<1.000000, 1.000000, 0.000000>;<0.000000, 0.000000, 0.000000>;0.000000
normal=312034cb-7923-d68e-45c8-039ff3015c4c;<1.000000, 1.000000, 0.000000>;<0.000000, 0.000000, 0.000000>;0.000000
specular=a2011657-ef1b-31bb-635f-1573117225f0;<1.000000, 1.000000, 0.000000>;<0.000000, 0.000000, 0.000000>;0.000000;<0.501961, 0.501961, 0.501961>;150;50
targetFace=2
color=<0.000000, 0.000000, 0.000000>;1.000000
texture=8717fdb4-62a9-8b70-8720-f6edb077d921;<1.000000, 1.000000, 0.000000>;<0.000000, 0.000000, 0.000000>;0.000000
normal=312034cb-7923-d68e-45c8-039ff3015c4c;<1.000000, 1.000000, 0.000000>;<0.000000, 0.000000, 0.000000>;0.000000
specular=a2011657-ef1b-31bb-635f-1573117225f0;<1.000000, 1.000000, 0.000000>;<0.000000, 0.000000, 0.000000>;0.000000;<0.501961, 0.501961, 0.501961>;150;50
targetFace=3
color=<0.000000, 0.000000, 0.000000>;1.000000
texture=8717fdb4-62a9-8b70-8720-f6edb077d921;<1.000000, 1.000000, 0.000000>;<0.000000, 0.000000, 0.000000>;0.000000
normal=312034cb-7923-d68e-45c8-039ff3015c4c;<1.000000, 1.000000, 0.000000>;<0.000000, 0.000000, 0.000000>;0.000000
specular=a2011657-ef1b-31bb-635f-1573117225f0;<1.000000, 1.000000, 0.000000>;<0.000000, 0.000000, 0.000000>;0.000000;<0.501961, 0.501961, 0.501961>;150;50
targetFace=4
color=<0.000000, 0.000000, 0.000000>;1.000000
texture=8717fdb4-62a9-8b70-8720-f6edb077d921;<1.000000, 1.000000, 0.000000>;<0.000000, 0.000000, 0.000000>;0.000000
normal=312034cb-7923-d68e-45c8-039ff3015c4c;<1.000000, 1.000000, 0.000000>;<0.000000, 0.000000, 0.000000>;0.000000
specular=a2011657-ef1b-31bb-635f-1573117225f0;<1.000000, 1.000000, 0.000000>;<0.000000, 0.000000, 0.000000>;0.000000;<0.501961, 0.501961, 0.501961>;150;50
targetFace=5
color=<1.000000, 1.000000, 1.000000>;0.000000
texture=5748decc-f629-461c-9a36-a35a221fe21f;<1.000000, 1.000000, 0.000000>;<0.000000, 0.000000, 0.000000>;0.000000
normal=5b53359e-59dd-d8a2-04c3-9e65134da47a;<1.000000, 1.000000, 0.000000>;<0.000000, 0.000000, 0.000000>;0.000000
specular=5748decc-f629-461c-9a36-a35a221fe21f;<1.000000, 1.000000, 0.000000>;<0.000000, 0.000000, 0.000000>;0.000000;<1.000000, 1.000000, 1.000000>;51;0
# Settings for linked object number 14
targetObject=14
targetFace=0
color=<0.749020, 0.749020, 0.749020>;0.000000
texture=5748decc-f629-461c-9a36-a35a221fe21f;<1.000000, 1.000000, 0.000000>;<0.000000, 0.000000, 0.000000>;0.000000
normal=5b53359e-59dd-d8a2-04c3-9e65134da47a;<1.000000, 1.000000, 0.000000>;<0.000000, 0.000000, 0.000000>;0.000000
specular=5748decc-f629-461c-9a36-a35a221fe21f;<1.000000, 1.000000, 0.000000>;<0.000000, 0.000000, 0.000000>;0.000000;<0.501961, 0.501961, 0.501961>;150;50
targetFace=1
color=<0.000000, 0.000000, 0.000000>;1.000000
texture=8717fdb4-62a9-8b70-8720-f6edb077d921;<1.000000, 1.000000, 0.000000>;<0.000000, 0.000000, 0.000000>;0.000000
normal=312034cb-7923-d68e-45c8-039ff3015c4c;<1.000000, 1.000000, 0.000000>;<0.000000, 0.000000, 0.000000>;0.000000
specular=a2011657-ef1b-31bb-635f-1573117225f0;<1.000000, 1.000000, 0.000000>;<0.000000, 0.000000, 0.000000>;0.000000;<0.501961, 0.501961, 0.501961>;150;50
###############
